%!PS-Adobe-3.0
%%Creator: PCBNEW
%%CreationDate: Mon Oct 01 16:47:54 2018
%%Title: D:\PEUS_Testing_GmbH\Connectors\connectors\Connector 4Pin\Male\Schematik\RJ45_4Pin\Gerber\RJ45_to_4pin-NPTH-drl_map.ps
%%Pages: 1
%%PageOrder: Ascend
%%BoundingBox: 0 0 596 842
%%DocumentMedia: A4 595 842 0 () ()
%%Orientation: Landscape
%%EndComments
%%BeginProlog
/line { newpath moveto lineto stroke } bind def
/cir0 { newpath 0 360 arc stroke } bind def
/cir1 { newpath 0 360 arc gsave fill grestore stroke } bind def
/cir2 { newpath 0 360 arc gsave fill grestore stroke } bind def
/arc0 { newpath arc stroke } bind def
/arc1 { newpath 4 index 4 index moveto arc closepath gsave fill
    grestore stroke } bind def
/arc2 { newpath 4 index 4 index moveto arc closepath gsave fill
    grestore stroke } bind def
/poly0 { stroke } bind def
/poly1 { closepath gsave fill grestore stroke } bind def
/poly2 { closepath gsave fill grestore stroke } bind def
/rect0 { rectstroke } bind def
/rect1 { rectfill } bind def
/rect2 { rectfill } bind def
/linemode0 { 0 setlinecap 0 setlinejoin 0 setlinewidth } bind def
/linemode1 { 1 setlinecap 1 setlinejoin } bind def
/dashedline { [200] 100 setdash } bind def
/solidline { [] 0 setdash } bind def
/phantomshow { moveto
    /KicadFont findfont 0.000001 scalefont setfont
    show } bind def
/textshow { gsave
    findfont exch scalefont setfont concat 1 scale 0 0 moveto show
    } bind def
/reencodefont {
  findfont dup length dict begin
  { 1 index /FID ne
    { def }
    { pop pop } ifelse
  } forall
  /Encoding ISOLatin1Encoding def
  currentdict
  end } bind def
/KicadFont /Helvetica reencodefont definefont pop
/KicadFont-Bold /Helvetica-Bold reencodefont definefont pop
/KicadFont-Oblique /Helvetica-Oblique reencodefont definefont pop
/KicadFont-BoldOblique /Helvetica-BoldOblique reencodefont definefont pop
%%EndProlog
%%Page: 1 1
%%BeginPageSetup
gsave
0.0072 0.0072 scale
linemode1
82680 0 translate 90 rotate
150 setlinewidth
%%EndPageSetup
0 0 0 setrgbcolor
177.165 setlinewidth
newpath
90945.3 72639.8 moveto
25984.7 72639.8 lineto
stroke
0 0 0 setrgbcolor
newpath
90945.3 43112.2 moveto
90945.3 72639.8 lineto
stroke
0 0 0 setrgbcolor
newpath
90354.8 43112.2 moveto
90945.3 43112.2 lineto
stroke
0 0 0 setrgbcolor
newpath
25984.7 43112.2 moveto
90354.8 43112.2 lineto
stroke
0 0 0 setrgbcolor
newpath
25984.7 72639.8 moveto
25984.7 43112.2 lineto
stroke
78.7394 setlinewidth
newpath
56575.2 59765.8 moveto
60354.8 55986.2 lineto
stroke
newpath
60354.8 59765.8 moveto
56575.2 55986.2 lineto
stroke
118.11 setlinewidth
newpath
26964.7 41190.1 moveto
26964.7 42371.2 lineto
27245.9 42371.2 lineto
27414.7 42315 lineto
27527.1 42202.5 lineto
27583.4 42090 lineto
27639.6 41865 lineto
27639.6 41696.3 lineto
27583.4 41471.3 lineto
27527.1 41358.8 lineto
27414.7 41246.4 lineto
27245.9 41190.1 lineto
26964.7 41190.1 lineto
stroke
newpath
28145.8 41190.1 moveto
28145.8 41977.5 lineto
stroke
newpath
28145.8 41752.5 moveto
28202.1 41865 lineto
28258.3 41921.3 lineto
28370.8 41977.5 lineto
28483.3 41977.5 lineto
stroke
newpath
28877 41190.1 moveto
28877 41977.5 lineto
stroke
newpath
28877 42371.2 moveto
28820.7 42315 lineto
28877 42258.7 lineto
28933.2 42315 lineto
28877 42371.2 lineto
28877 42258.7 lineto
stroke
newpath
29608.1 41190.1 moveto
29495.7 41246.4 lineto
29439.4 41358.8 lineto
29439.4 42371.2 lineto
stroke
newpath
30226.8 41190.1 moveto
30114.3 41246.4 lineto
30058.1 41358.8 lineto
30058.1 42371.2 lineto
stroke
newpath
31576.6 41190.1 moveto
31576.6 42371.2 lineto
31970.3 41527.6 lineto
32364 42371.2 lineto
32364 41190.1 lineto
stroke
newpath
33432.7 41190.1 moveto
33432.7 41808.8 lineto
33376.4 41921.3 lineto
33263.9 41977.5 lineto
33039 41977.5 lineto
32926.5 41921.3 lineto
stroke
newpath
33432.7 41246.4 moveto
33320.2 41190.1 lineto
33039 41190.1 lineto
32926.5 41246.4 lineto
32870.2 41358.8 lineto
32870.2 41471.3 lineto
32926.5 41583.8 lineto
33039 41640.1 lineto
33320.2 41640.1 lineto
33432.7 41696.3 lineto
stroke
newpath
33995.1 41977.5 moveto
33995.1 40796.4 lineto
stroke
newpath
33995.1 41921.3 moveto
34107.6 41977.5 lineto
34332.5 41977.5 lineto
34445 41921.3 lineto
34501.3 41865 lineto
34557.5 41752.5 lineto
34557.5 41415.1 lineto
34501.3 41302.6 lineto
34445 41246.4 lineto
34332.5 41190.1 lineto
34107.6 41190.1 lineto
33995.1 41246.4 lineto
stroke
newpath
35063.7 41302.6 moveto
35119.9 41246.4 lineto
35063.7 41190.1 lineto
35007.5 41246.4 lineto
35063.7 41302.6 lineto
35063.7 41190.1 lineto
stroke
newpath
35063.7 41921.3 moveto
35119.9 41865 lineto
35063.7 41808.8 lineto
35007.5 41865 lineto
35063.7 41921.3 lineto
35063.7 41808.8 lineto
stroke
newpath
22116.6 41133.9 moveto
25896.1 37354.3 lineto
stroke
newpath
25896.1 41133.9 moveto
22116.6 37354.3 lineto
stroke
newpath
26852.2 39890.9 moveto
27583.4 39890.9 lineto
27189.7 39441 lineto
27358.4 39441 lineto
27470.9 39384.7 lineto
27527.1 39328.5 lineto
27583.4 39216 lineto
27583.4 38934.8 lineto
27527.1 38822.3 lineto
27470.9 38766 lineto
27358.4 38709.8 lineto
27021 38709.8 lineto
26908.5 38766 lineto
26852.2 38822.3 lineto
stroke
newpath
28089.6 38822.3 moveto
28145.8 38766 lineto
28089.6 38709.8 lineto
28033.3 38766 lineto
28089.6 38822.3 lineto
28089.6 38709.8 lineto
stroke
newpath
28595.8 39778.4 moveto
28652 39834.7 lineto
28764.5 39890.9 lineto
29045.7 39890.9 lineto
29158.2 39834.7 lineto
29214.4 39778.4 lineto
29270.7 39665.9 lineto
29270.7 39553.4 lineto
29214.4 39384.7 lineto
28539.5 38709.8 lineto
29270.7 38709.8 lineto
stroke
newpath
30001.8 39890.9 moveto
30114.3 39890.9 lineto
30226.8 39834.7 lineto
30283.1 39778.4 lineto
30339.3 39665.9 lineto
30395.5 39441 lineto
30395.5 39159.7 lineto
30339.3 38934.8 lineto
30283.1 38822.3 lineto
30226.8 38766 lineto
30114.3 38709.8 lineto
30001.8 38709.8 lineto
29889.4 38766 lineto
29833.1 38822.3 lineto
29776.9 38934.8 lineto
29720.6 39159.7 lineto
29720.6 39441 lineto
29776.9 39665.9 lineto
29833.1 39778.4 lineto
29889.4 39834.7 lineto
30001.8 39890.9 lineto
stroke
newpath
30901.7 38709.8 moveto
30901.7 39497.2 lineto
stroke
newpath
30901.7 39384.7 moveto
30958 39441 lineto
31070.5 39497.2 lineto
31239.2 39497.2 lineto
31351.7 39441 lineto
31407.9 39328.5 lineto
31407.9 38709.8 lineto
stroke
newpath
31407.9 39328.5 moveto
31464.2 39441 lineto
31576.6 39497.2 lineto
31745.4 39497.2 lineto
31857.9 39441 lineto
31914.1 39328.5 lineto
31914.1 38709.8 lineto
stroke
newpath
32476.5 38709.8 moveto
32476.5 39497.2 lineto
stroke
newpath
32476.5 39384.7 moveto
32532.8 39441 lineto
32645.3 39497.2 lineto
32814 39497.2 lineto
32926.5 39441 lineto
32982.7 39328.5 lineto
32982.7 38709.8 lineto
stroke
newpath
32982.7 39328.5 moveto
33039 39441 lineto
33151.4 39497.2 lineto
33320.2 39497.2 lineto
33432.7 39441 lineto
33488.9 39328.5 lineto
33488.9 38709.8 lineto
stroke
newpath
35794.9 39947.1 moveto
34782.5 38428.6 lineto
stroke
newpath
37313.4 39890.9 moveto
37425.9 39890.9 lineto
37538.4 39834.7 lineto
37594.6 39778.4 lineto
37650.9 39665.9 lineto
37707.1 39441 lineto
37707.1 39159.7 lineto
37650.9 38934.8 lineto
37594.6 38822.3 lineto
37538.4 38766 lineto
37425.9 38709.8 lineto
37313.4 38709.8 lineto
37200.9 38766 lineto
37144.7 38822.3 lineto
37088.5 38934.8 lineto
37032.2 39159.7 lineto
37032.2 39441 lineto
37088.5 39665.9 lineto
37144.7 39778.4 lineto
37200.9 39834.7 lineto
37313.4 39890.9 lineto
stroke
newpath
38213.3 38822.3 moveto
38269.6 38766 lineto
38213.3 38709.8 lineto
38157.1 38766 lineto
38213.3 38822.3 lineto
38213.3 38709.8 lineto
stroke
newpath
39394.4 38709.8 moveto
38719.5 38709.8 lineto
stroke
newpath
39057 38709.8 moveto
39057 39890.9 lineto
38944.5 39722.2 lineto
38832 39609.7 lineto
38719.5 39553.4 lineto
stroke
newpath
39844.4 39778.4 moveto
39900.6 39834.7 lineto
40013.1 39890.9 lineto
40294.3 39890.9 lineto
40406.8 39834.7 lineto
40463 39778.4 lineto
40519.3 39665.9 lineto
40519.3 39553.4 lineto
40463 39384.7 lineto
39788.1 38709.8 lineto
40519.3 38709.8 lineto
stroke
newpath
41531.6 39890.9 moveto
41306.7 39890.9 lineto
41194.2 39834.7 lineto
41137.9 39778.4 lineto
41025.5 39609.7 lineto
40969.2 39384.7 lineto
40969.2 38934.8 lineto
41025.5 38822.3 lineto
41081.7 38766 lineto
41194.2 38709.8 lineto
41419.2 38709.8 lineto
41531.6 38766 lineto
41587.9 38822.3 lineto
41644.1 38934.8 lineto
41644.1 39216 lineto
41587.9 39328.5 lineto
41531.6 39384.7 lineto
41419.2 39441 lineto
41194.2 39441 lineto
41081.7 39384.7 lineto
41025.5 39328.5 lineto
40969.2 39216 lineto
stroke
newpath
42094.1 39890.9 moveto
42094.1 39665.9 lineto
stroke
newpath
42544 39890.9 moveto
42544 39665.9 lineto
stroke
newpath
44287.6 38259.9 moveto
44231.3 38316.1 lineto
44118.8 38484.8 lineto
44062.6 38597.3 lineto
44006.3 38766 lineto
43950.1 39047.3 lineto
43950.1 39272.2 lineto
44006.3 39553.4 lineto
44062.6 39722.2 lineto
44118.8 39834.7 lineto
44231.3 40003.4 lineto
44287.6 40059.6 lineto
stroke
newpath
45356.2 38709.8 moveto
44681.3 38709.8 lineto
stroke
newpath
45018.7 38709.8 moveto
45018.7 39890.9 lineto
44906.2 39722.2 lineto
44793.7 39609.7 lineto
44681.3 39553.4 lineto
stroke
newpath
46762.2 38709.8 moveto
46762.2 39890.9 lineto
stroke
newpath
47268.4 38709.8 moveto
47268.4 39328.5 lineto
47212.2 39441 lineto
47099.7 39497.2 lineto
46931 39497.2 lineto
46818.5 39441 lineto
46762.2 39384.7 lineto
stroke
newpath
47999.6 38709.8 moveto
47887.1 38766 lineto
47830.9 38822.3 lineto
47774.6 38934.8 lineto
47774.6 39272.2 lineto
47830.9 39384.7 lineto
47887.1 39441 lineto
47999.6 39497.2 lineto
48168.3 39497.2 lineto
48280.8 39441 lineto
48337 39384.7 lineto
48393.3 39272.2 lineto
48393.3 38934.8 lineto
48337 38822.3 lineto
48280.8 38766 lineto
48168.3 38709.8 lineto
47999.6 38709.8 lineto
stroke
newpath
49068.2 38709.8 moveto
48955.7 38766 lineto
48899.5 38878.5 lineto
48899.5 39890.9 lineto
stroke
newpath
49968.1 38766 moveto
49855.6 38709.8 lineto
49630.6 38709.8 lineto
49518.2 38766 lineto
49461.9 38878.5 lineto
49461.9 39328.5 lineto
49518.2 39441 lineto
49630.6 39497.2 lineto
49855.6 39497.2 lineto
49968.1 39441 lineto
50024.3 39328.5 lineto
50024.3 39216 lineto
49461.9 39103.5 lineto
stroke
newpath
50418 38259.9 moveto
50474.3 38316.1 lineto
50586.8 38484.8 lineto
50643 38597.3 lineto
50699.3 38766 lineto
50755.5 39047.3 lineto
50755.5 39272.2 lineto
50699.3 39553.4 lineto
50643 39722.2 lineto
50586.8 39834.7 lineto
50474.3 40003.4 lineto
50418 40059.6 lineto
stroke
newpath
52555.3 38259.9 moveto
52499 38316.1 lineto
52386.5 38484.8 lineto
52330.3 38597.3 lineto
52274.1 38766 lineto
52217.8 39047.3 lineto
52217.8 39272.2 lineto
52274.1 39553.4 lineto
52330.3 39722.2 lineto
52386.5 39834.7 lineto
52499 40003.4 lineto
52555.3 40059.6 lineto
stroke
newpath
53005.2 39497.2 moveto
53005.2 38709.8 lineto
stroke
newpath
53005.2 39384.7 moveto
53061.5 39441 lineto
53173.9 39497.2 lineto
53342.7 39497.2 lineto
53455.2 39441 lineto
53511.4 39328.5 lineto
53511.4 38709.8 lineto
stroke
newpath
54242.6 38709.8 moveto
54130.1 38766 lineto
54073.8 38822.3 lineto
54017.6 38934.8 lineto
54017.6 39272.2 lineto
54073.8 39384.7 lineto
54130.1 39441 lineto
54242.6 39497.2 lineto
54411.3 39497.2 lineto
54523.8 39441 lineto
54580 39384.7 lineto
54636.3 39272.2 lineto
54636.3 38934.8 lineto
54580 38822.3 lineto
54523.8 38766 lineto
54411.3 38709.8 lineto
54242.6 38709.8 lineto
stroke
newpath
54973.7 39497.2 moveto
55423.7 39497.2 lineto
stroke
newpath
55142.4 39890.9 moveto
55142.4 38878.5 lineto
55198.7 38766 lineto
55311.2 38709.8 lineto
55423.7 38709.8 lineto
stroke
newpath
56717.3 39497.2 moveto
56717.3 38316.1 lineto
stroke
newpath
56717.3 39441 moveto
56829.7 39497.2 lineto
57054.7 39497.2 lineto
57167.2 39441 lineto
57223.4 39384.7 lineto
57279.7 39272.2 lineto
57279.7 38934.8 lineto
57223.4 38822.3 lineto
57167.2 38766 lineto
57054.7 38709.8 lineto
56829.7 38709.8 lineto
56717.3 38766 lineto
stroke
newpath
57954.6 38709.8 moveto
57842.1 38766 lineto
57785.9 38878.5 lineto
57785.9 39890.9 lineto
stroke
newpath
58910.7 38709.8 moveto
58910.7 39328.5 lineto
58854.5 39441 lineto
58742 39497.2 lineto
58517 39497.2 lineto
58404.5 39441 lineto
stroke
newpath
58910.7 38766 moveto
58798.2 38709.8 lineto
58517 38709.8 lineto
58404.5 38766 lineto
58348.3 38878.5 lineto
58348.3 38991 lineto
58404.5 39103.5 lineto
58517 39159.7 lineto
58798.2 39159.7 lineto
58910.7 39216 lineto
stroke
newpath
59304.4 39497.2 moveto
59754.4 39497.2 lineto
stroke
newpath
59473.2 39890.9 moveto
59473.2 38878.5 lineto
59529.4 38766 lineto
59641.9 38709.8 lineto
59754.4 38709.8 lineto
stroke
newpath
60598 38766 moveto
60485.5 38709.8 lineto
60260.6 38709.8 lineto
60148.1 38766 lineto
60091.8 38878.5 lineto
60091.8 39328.5 lineto
60148.1 39441 lineto
60260.6 39497.2 lineto
60485.5 39497.2 lineto
60598 39441 lineto
60654.3 39328.5 lineto
60654.3 39216 lineto
60091.8 39103.5 lineto
stroke
newpath
61666.6 38709.8 moveto
61666.6 39890.9 lineto
stroke
newpath
61666.6 38766 moveto
61554.2 38709.8 lineto
61329.2 38709.8 lineto
61216.7 38766 lineto
61160.4 38822.3 lineto
61104.2 38934.8 lineto
61104.2 39272.2 lineto
61160.4 39384.7 lineto
61216.7 39441 lineto
61329.2 39497.2 lineto
61554.2 39497.2 lineto
61666.6 39441 lineto
stroke
newpath
62116.6 38259.9 moveto
62172.8 38316.1 lineto
62285.3 38484.8 lineto
62341.6 38597.3 lineto
62397.8 38766 lineto
62454 39047.3 lineto
62454 39272.2 lineto
62397.8 39553.4 lineto
62341.6 39722.2 lineto
62285.3 39834.7 lineto
62172.8 40003.4 lineto
62116.6 40059.6 lineto
stroke
showpage
grestore
%%EOF
