(kicad_pcb (version 4) (host pcbnew 4.0.7)

  (general
    (links 4)
    (no_connects 0)
    (area 59.150001 72.3 159.135715 129.100001)
    (thickness 1.6)
    (drawings 53)
    (tracks 18)
    (zones 0)
    (modules 2)
    (nets 9)
  )

  (page A4)
  (layers
    (0 F.Cu signal)
    (31 B.Cu signal)
    (32 B.Adhes user)
    (33 F.Adhes user)
    (34 B.Paste user)
    (35 F.Paste user)
    (36 B.SilkS user)
    (37 F.SilkS user)
    (38 B.Mask user)
    (39 F.Mask user)
    (40 Dwgs.User user)
    (41 Cmts.User user)
    (42 Eco1.User user)
    (43 Eco2.User user)
    (44 Edge.Cuts user)
    (45 Margin user)
    (46 B.CrtYd user)
    (47 F.CrtYd user)
    (48 B.Fab user)
    (49 F.Fab user)
  )

  (setup
    (last_trace_width 0.25)
    (trace_clearance 0.2)
    (zone_clearance 0.508)
    (zone_45_only no)
    (trace_min 0.2)
    (segment_width 0.2)
    (edge_width 0.15)
    (via_size 0.6)
    (via_drill 0.4)
    (via_min_size 0.4)
    (via_min_drill 0.3)
    (uvia_size 0.3)
    (uvia_drill 0.1)
    (uvias_allowed no)
    (uvia_min_size 0.2)
    (uvia_min_drill 0.1)
    (pcb_text_width 0.3)
    (pcb_text_size 1.5 1.5)
    (mod_edge_width 0.15)
    (mod_text_size 1 1)
    (mod_text_width 0.15)
    (pad_size 10 3.5)
    (pad_drill 8)
    (pad_to_mask_clearance 0.2)
    (aux_axis_origin 0 0)
    (visible_elements 7FFFFFFF)
    (pcbplotparams
      (layerselection 0x010fc_80000001)
      (usegerberextensions false)
      (excludeedgelayer true)
      (linewidth 0.100000)
      (plotframeref false)
      (viasonmask false)
      (mode 1)
      (useauxorigin false)
      (hpglpennumber 1)
      (hpglpenspeed 20)
      (hpglpendiameter 15)
      (hpglpenoverlay 2)
      (psnegative false)
      (psa4output false)
      (plotreference true)
      (plotvalue true)
      (plotinvisibletext false)
      (padsonsilk false)
      (subtractmaskfromsilk false)
      (outputformat 1)
      (mirror false)
      (drillshape 0)
      (scaleselection 1)
      (outputdirectory Gerber/))
  )

  (net 0 "")
  (net 1 "Net-(J1-Pad1)")
  (net 2 "Net-(J1-Pad2)")
  (net 3 "Net-(J1-Pad3)")
  (net 4 "Net-(J1-Pad4)")
  (net 5 "Net-(J1-Pad5)")
  (net 6 "Net-(J1-Pad6)")
  (net 7 "Net-(J1-Pad7)")
  (net 8 "Net-(J1-Pad8)")

  (net_class Default "Dies ist die voreingestellte Netzklasse."
    (clearance 0.2)
    (trace_width 0.25)
    (via_dia 0.6)
    (via_drill 0.4)
    (uvia_dia 0.3)
    (uvia_drill 0.1)
  )

  (net_class Mittel ""
    (clearance 0.2)
    (trace_width 0.5)
    (via_dia 0.6)
    (via_drill 0.4)
    (uvia_dia 0.3)
    (uvia_drill 0.1)
    (add_net "Net-(J1-Pad1)")
    (add_net "Net-(J1-Pad2)")
    (add_net "Net-(J1-Pad3)")
    (add_net "Net-(J1-Pad4)")
    (add_net "Net-(J1-Pad5)")
    (add_net "Net-(J1-Pad6)")
    (add_net "Net-(J1-Pad7)")
    (add_net "Net-(J1-Pad8)")
  )

  (module RJ45_SMT (layer F.Cu) (tedit 5BAB3DAB) (tstamp 5BA92886)
    (at 82 101 90)
    (path /5B84FEDA)
    (fp_text reference J1 (at 0 1.016 90) (layer F.SilkS)
      (effects (font (size 1 1) (thickness 0.15)))
    )
    (fp_text value RJ45 (at 0 -1.016 90) (layer F.Fab)
      (effects (font (size 1 1) (thickness 0.15)))
    )
    (fp_line (start -7.62 0) (end -7.62 10.4) (layer F.SilkS) (width 0.15))
    (fp_line (start -7.62 -10.4) (end -7.62 0) (layer F.SilkS) (width 0.15))
    (fp_line (start 0 -10.5) (end -7.62 -10.5) (layer F.SilkS) (width 0.15))
    (fp_line (start -7.62 10.4) (end 0 10.4) (layer F.SilkS) (width 0.15))
    (fp_line (start 7.62 10.4) (end 0 10.4) (layer F.SilkS) (width 0.15))
    (fp_line (start 0 -10.5) (end 7.62 -10.5) (layer F.SilkS) (width 0.15))
    (fp_line (start 7.62 -10.4) (end 7.62 0) (layer F.SilkS) (width 0.15))
    (fp_line (start 7.62 0) (end 7.62 10.4) (layer F.SilkS) (width 0.15))
    (pad 8 smd rect (at -4.445 8.505 90) (size 0.76 5.5) (layers F.Cu F.Paste F.Mask)
      (net 8 "Net-(J1-Pad8)"))
    (pad 7 smd rect (at -3.175 8.505 90) (size 0.76 5.5) (layers F.Cu F.Paste F.Mask)
      (net 7 "Net-(J1-Pad7)"))
    (pad 6 smd rect (at -1.905 8.505 90) (size 0.76 5.5) (layers F.Cu F.Paste F.Mask)
      (net 6 "Net-(J1-Pad6)"))
    (pad 5 smd rect (at -0.635 8.505 90) (size 0.76 5.5) (layers F.Cu F.Paste F.Mask)
      (net 5 "Net-(J1-Pad5)"))
    (pad 4 smd rect (at 0.635 8.505 90) (size 0.76 5.5) (layers F.Cu F.Paste F.Mask)
      (net 4 "Net-(J1-Pad4)"))
    (pad 3 smd rect (at 1.905 8.505 90) (size 0.76 5.5) (layers F.Cu F.Paste F.Mask)
      (net 3 "Net-(J1-Pad3)"))
    (pad 2 smd rect (at 3.175 8.505 90) (size 0.76 5.5) (layers F.Cu F.Paste F.Mask)
      (net 2 "Net-(J1-Pad2)"))
    (pad 1 smd rect (at 4.445 8.505 90) (size 0.76 5.5) (layers F.Cu F.Paste F.Mask)
      (net 1 "Net-(J1-Pad1)"))
    (pad "" smd rect (at 0 -6.985 90) (size 8.8 4.5) (layers F.Cu F.Paste F.Mask))
    (model Connectors.3dshapes/RJ45_SMT_855135013.wrl
      (at (xyz 0 -0.04 0.26))
      (scale (xyz 0.4 0.4 0.4))
      (rotate (xyz 90 -180 -90))
    )
  )

  (module RoundConnector_4pin (layer B.Cu) (tedit 5BA8C3E0) (tstamp 5BA8E2A0)
    (at 100 101 135)
    (path /5B802011)
    (fp_text reference J2 (at 0 -8.89 135) (layer B.SilkS)
      (effects (font (size 1 1) (thickness 0.15)) (justify mirror))
    )
    (fp_text value Conn_01x04 (at 0 8.89 135) (layer B.Fab)
      (effects (font (size 1 1) (thickness 0.15)) (justify mirror))
    )
    (fp_circle (center 0 0) (end 7.5 0) (layer B.SilkS) (width 0.15))
    (pad 1 thru_hole circle (at 0 5 135) (size 3 3) (drill 1.7) (layers *.Cu *.Mask)
      (net 1 "Net-(J1-Pad1)"))
    (pad 3 thru_hole circle (at 0 -5 135) (size 3 3) (drill 1.7) (layers *.Cu *.Mask)
      (net 3 "Net-(J1-Pad3)"))
    (pad 4 thru_hole circle (at -5 0 135) (size 3 3) (drill 1.7) (layers *.Cu *.Mask)
      (net 4 "Net-(J1-Pad4)"))
    (pad 2 thru_hole circle (at 5 0 135) (size 3 3) (drill 1.7) (layers *.Cu *.Mask)
      (net 2 "Net-(J1-Pad2)"))
    (pad "" np_thru_hole circle (at 0 0 135) (size 3.3 3.3) (drill 3.2) (layers *.Cu *.Mask))
    (model Connectors.3dshapes/4Pin_Connector_round.wrl
      (at (xyz 0 0 0))
      (scale (xyz 0.4 0.4 0.4))
      (rotate (xyz 0 0 0))
    )
  )

  (gr_text "PEUS-Testing GmbH" (at 100 111.5) (layer F.SilkS)
    (effects (font (size 1 1) (thickness 0.2)))
  )
  (gr_text "Connector 4 Pin\nMod: 1.0" (at 119.5 110.5) (layer F.SilkS)
    (effects (font (size 1 1) (thickness 0.2)))
  )
  (gr_text "4 PIN\nConnector Placemant" (at 100 91) (layer B.Cu)
    (effects (font (size 1.5 1.5) (thickness 0.3)) (justify mirror))
  )
  (gr_text "TO THE CENTER" (at 115.5 101) (layer F.SilkS)
    (effects (font (size 1 1) (thickness 0.2)))
  )
  (gr_text "TOP\n" (at 75 112) (layer F.Cu)
    (effects (font (size 1.5 1.5) (thickness 0.3)))
  )
  (gr_text "BOT\n" (at 75 112) (layer B.Cu)
    (effects (font (size 1.5 1.5) (thickness 0.3)) (justify mirror))
  )
  (gr_text "<- PACK_CONTROL" (at 80 91.5) (layer F.SilkS)
    (effects (font (size 1 1) (thickness 0.2)))
  )
  (gr_line (start 122.5 107) (end 122.5 97.5) (angle 90) (layer F.SilkS) (width 0.2))
  (gr_line (start 124.5 107) (end 122.5 107) (angle 90) (layer F.SilkS) (width 0.2))
  (gr_line (start 124.5 97.5) (end 124.5 107) (angle 90) (layer F.SilkS) (width 0.2))
  (gr_line (start 121 97.5) (end 122.5 97.5) (angle 90) (layer F.SilkS) (width 0.2))
  (gr_line (start 123.5 95) (end 121 97.5) (angle 90) (layer F.SilkS) (width 0.2))
  (gr_line (start 126 97.5) (end 123.5 95) (angle 90) (layer F.SilkS) (width 0.2))
  (gr_line (start 124.5 97.5) (end 126 97.5) (angle 90) (layer F.SilkS) (width 0.2))
  (gr_text 3 (at 94 108) (layer F.SilkS)
    (effects (font (size 1.5 1.5) (thickness 0.3)))
  )
  (gr_text 2 (at 94 94) (layer F.SilkS)
    (effects (font (size 1.5 1.5) (thickness 0.3)))
  )
  (gr_text 4 (at 106 108) (layer F.SilkS)
    (effects (font (size 1.5 1.5) (thickness 0.3)))
  )
  (gr_text 1 (at 106 94) (layer F.SilkS)
    (effects (font (size 1.5 1.5) (thickness 0.3)))
  )
  (dimension 5.5 (width 0.3) (layer Eco1.User)
    (gr_text "5,500 mm" (at 153.35 110.75 270) (layer Eco1.User)
      (effects (font (size 1.5 1.5) (thickness 0.3)))
    )
    (feature1 (pts (xy 150 113.5) (xy 154.7 113.5)))
    (feature2 (pts (xy 150 108) (xy 154.7 108)))
    (crossbar (pts (xy 152 108) (xy 152 113.5)))
    (arrow1a (pts (xy 152 113.5) (xy 151.413579 112.373496)))
    (arrow1b (pts (xy 152 113.5) (xy 152.586421 112.373496)))
    (arrow2a (pts (xy 152 108) (xy 151.413579 109.126504)))
    (arrow2b (pts (xy 152 108) (xy 152.586421 109.126504)))
  )
  (dimension 19.5 (width 0.3) (layer Eco1.User)
    (gr_text "19,500 mm" (at 147.35 103.75 270) (layer Eco1.User)
      (effects (font (size 1.5 1.5) (thickness 0.3)))
    )
    (feature1 (pts (xy 144 113.5) (xy 148.7 113.5)))
    (feature2 (pts (xy 144 94) (xy 148.7 94)))
    (crossbar (pts (xy 146 94) (xy 146 113.5)))
    (arrow1a (pts (xy 146 113.5) (xy 145.413579 112.373496)))
    (arrow1b (pts (xy 146 113.5) (xy 146.586421 112.373496)))
    (arrow2a (pts (xy 146 94) (xy 145.413579 95.126504)))
    (arrow2b (pts (xy 146 94) (xy 146.586421 95.126504)))
  )
  (dimension 38.5 (width 0.3) (layer Eco1.User)
    (gr_text "38,500 mm" (at 108.25 123.85) (layer Eco1.User)
      (effects (font (size 1.5 1.5) (thickness 0.3)))
    )
    (feature1 (pts (xy 127.5 119) (xy 127.5 125.2)))
    (feature2 (pts (xy 89 119) (xy 89 125.2)))
    (crossbar (pts (xy 89 122.5) (xy 127.5 122.5)))
    (arrow1a (pts (xy 127.5 122.5) (xy 126.373496 123.086421)))
    (arrow1b (pts (xy 127.5 122.5) (xy 126.373496 121.913579)))
    (arrow2a (pts (xy 89 122.5) (xy 90.126504 123.086421)))
    (arrow2b (pts (xy 89 122.5) (xy 90.126504 121.913579)))
  )
  (dimension 16.5 (width 0.3) (layer Eco1.User)
    (gr_text "16,500 mm" (at 119.25 77.15) (layer Eco1.User)
      (effects (font (size 1.5 1.5) (thickness 0.3)))
    )
    (feature1 (pts (xy 111 82) (xy 111 75.8)))
    (feature2 (pts (xy 127.5 82) (xy 127.5 75.8)))
    (crossbar (pts (xy 127.5 78.5) (xy 111 78.5)))
    (arrow1a (pts (xy 111 78.5) (xy 112.126504 77.913579)))
    (arrow1b (pts (xy 111 78.5) (xy 112.126504 79.086421)))
    (arrow2a (pts (xy 127.5 78.5) (xy 126.373496 77.913579)))
    (arrow2b (pts (xy 127.5 78.5) (xy 126.373496 79.086421)))
  )
  (gr_line (start 125 89) (end 125 107) (angle 90) (layer Eco1.User) (width 0.2))
  (dimension 2.5 (width 0.3) (layer Eco1.User)
    (gr_text "2,500 mm" (at 126.25 84.15) (layer Eco1.User)
      (effects (font (size 1.5 1.5) (thickness 0.3)))
    )
    (feature1 (pts (xy 125 88) (xy 125 82.8)))
    (feature2 (pts (xy 127.5 88) (xy 127.5 82.8)))
    (crossbar (pts (xy 127.5 85.5) (xy 125 85.5)))
    (arrow1a (pts (xy 125 85.5) (xy 126.126504 84.913579)))
    (arrow1b (pts (xy 125 85.5) (xy 126.126504 86.086421)))
    (arrow2a (pts (xy 127.5 85.5) (xy 126.373496 84.913579)))
    (arrow2b (pts (xy 127.5 85.5) (xy 126.373496 86.086421)))
  )
  (dimension 2.5 (width 0.3) (layer Eco1.User)
    (gr_text "2,500 mm" (at 73.75 84.15) (layer Eco1.User)
      (effects (font (size 1.5 1.5) (thickness 0.3)))
    )
    (feature1 (pts (xy 75 88) (xy 75 82.8)))
    (feature2 (pts (xy 72.5 88) (xy 72.5 82.8)))
    (crossbar (pts (xy 72.5 85.5) (xy 75 85.5)))
    (arrow1a (pts (xy 75 85.5) (xy 73.873496 86.086421)))
    (arrow1b (pts (xy 75 85.5) (xy 73.873496 84.913579)))
    (arrow2a (pts (xy 72.5 85.5) (xy 73.626504 86.086421)))
    (arrow2b (pts (xy 72.5 85.5) (xy 73.626504 84.913579)))
  )
  (gr_line (start 126.5 108) (end 71 108) (angle 90) (layer Eco1.User) (width 0.2))
  (dimension 7 (width 0.3) (layer Eco1.User)
    (gr_text "7,000 mm" (at 142.35 104.5 270) (layer Eco1.User)
      (effects (font (size 1.5 1.5) (thickness 0.3)))
    )
    (feature1 (pts (xy 127.5 108) (xy 143.7 108)))
    (feature2 (pts (xy 127.5 101) (xy 143.7 101)))
    (crossbar (pts (xy 141 101) (xy 141 108)))
    (arrow1a (pts (xy 141 108) (xy 140.413579 106.873496)))
    (arrow1b (pts (xy 141 108) (xy 141.586421 106.873496)))
    (arrow2a (pts (xy 141 101) (xy 140.413579 102.126504)))
    (arrow2b (pts (xy 141 101) (xy 141.586421 102.126504)))
  )
  (gr_line (start 89 88.5) (end 89 114) (angle 90) (layer Eco1.User) (width 0.2))
  (dimension 11 (width 0.3) (layer Eco1.User)
    (gr_text "11,000 mm" (at 94.5 77.15) (layer Eco1.User)
      (effects (font (size 1.5 1.5) (thickness 0.3)))
    )
    (feature1 (pts (xy 89 88.5) (xy 89 75.8)))
    (feature2 (pts (xy 100 88.5) (xy 100 75.8)))
    (crossbar (pts (xy 100 78.5) (xy 89 78.5)))
    (arrow1a (pts (xy 89 78.5) (xy 90.126504 77.913579)))
    (arrow1b (pts (xy 89 78.5) (xy 90.126504 79.086421)))
    (arrow2a (pts (xy 100 78.5) (xy 98.873496 77.913579)))
    (arrow2b (pts (xy 100 78.5) (xy 98.873496 79.086421)))
  )
  (gr_line (start 111 81) (end 111 120) (angle 90) (layer Eco1.User) (width 0.2))
  (dimension 11 (width 0.3) (layer Eco1.User)
    (gr_text "11,000 mm" (at 105.5 77.15) (layer Eco1.User)
      (effects (font (size 1.5 1.5) (thickness 0.3)))
    )
    (feature1 (pts (xy 111 80) (xy 111 75.8)))
    (feature2 (pts (xy 100 80) (xy 100 75.8)))
    (crossbar (pts (xy 100 78.5) (xy 111 78.5)))
    (arrow1a (pts (xy 111 78.5) (xy 109.873496 79.086421)))
    (arrow1b (pts (xy 111 78.5) (xy 109.873496 77.913579)))
    (arrow2a (pts (xy 100 78.5) (xy 101.126504 79.086421)))
    (arrow2b (pts (xy 100 78.5) (xy 101.126504 77.913579)))
  )
  (gr_line (start 128 94) (end 70 94) (angle 90) (layer Eco1.User) (width 0.2))
  (dimension 7 (width 0.3) (layer Eco1.User)
    (gr_text "7,000 mm" (at 142.35 97.5 90) (layer Eco1.User)
      (effects (font (size 1.5 1.5) (thickness 0.3)))
    )
    (feature1 (pts (xy 129 94) (xy 143.7 94)))
    (feature2 (pts (xy 129 101) (xy 143.7 101)))
    (crossbar (pts (xy 141 101) (xy 141 94)))
    (arrow1a (pts (xy 141 94) (xy 141.586421 95.126504)))
    (arrow1b (pts (xy 141 94) (xy 140.413579 95.126504)))
    (arrow2a (pts (xy 141 101) (xy 141.586421 99.873496)))
    (arrow2b (pts (xy 141 101) (xy 140.413579 99.873496)))
  )
  (gr_line (start 100 85) (end 100 129) (angle 90) (layer Eco1.User) (width 0.2))
  (dimension 27.5 (width 0.3) (layer Eco1.User)
    (gr_text "27,500 mm" (at 86.25 73.65) (layer Eco1.User)
      (effects (font (size 1.5 1.5) (thickness 0.3)))
    )
    (feature1 (pts (xy 100 81.5) (xy 100 72.3)))
    (feature2 (pts (xy 72.5 81.5) (xy 72.5 72.3)))
    (crossbar (pts (xy 72.5 75) (xy 100 75)))
    (arrow1a (pts (xy 100 75) (xy 98.873496 75.586421)))
    (arrow1b (pts (xy 100 75) (xy 98.873496 74.413579)))
    (arrow2a (pts (xy 72.5 75) (xy 73.626504 75.586421)))
    (arrow2b (pts (xy 72.5 75) (xy 73.626504 74.413579)))
  )
  (gr_line (start 74 101) (end 129 101) (angle 90) (layer Eco1.User) (width 0.2))
  (gr_line (start 75 101) (end 75 87) (angle 90) (layer Eco1.User) (width 0.2))
  (gr_line (start 72.5 101) (end 79.5 101) (angle 90) (layer Eco1.User) (width 0.2))
  (dimension 12.5 (width 0.3) (layer Eco1.User)
    (gr_text "12,500 mm" (at 65.65 94.75 270) (layer Eco1.User)
      (effects (font (size 1.5 1.5) (thickness 0.3)))
    )
    (feature1 (pts (xy 72.5 101) (xy 64.3 101)))
    (feature2 (pts (xy 72.5 88.5) (xy 64.3 88.5)))
    (crossbar (pts (xy 67 88.5) (xy 67 101)))
    (arrow1a (pts (xy 67 101) (xy 66.413579 99.873496)))
    (arrow1b (pts (xy 67 101) (xy 67.586421 99.873496)))
    (arrow2a (pts (xy 67 88.5) (xy 66.413579 89.626504)))
    (arrow2b (pts (xy 67 88.5) (xy 67.586421 89.626504)))
  )
  (dimension 55 (width 0.3) (layer Eco1.User)
    (gr_text "55,000 mm" (at 100 118.35) (layer Eco1.User)
      (effects (font (size 1.5 1.5) (thickness 0.3)))
    )
    (feature1 (pts (xy 127.5 114) (xy 127.5 119.7)))
    (feature2 (pts (xy 72.5 114) (xy 72.5 119.7)))
    (crossbar (pts (xy 72.5 117) (xy 127.5 117)))
    (arrow1a (pts (xy 127.5 117) (xy 126.373496 117.586421)))
    (arrow1b (pts (xy 127.5 117) (xy 126.373496 116.413579)))
    (arrow2a (pts (xy 72.5 117) (xy 73.626504 117.586421)))
    (arrow2b (pts (xy 72.5 117) (xy 73.626504 116.413579)))
  )
  (gr_line (start 127.5 88.5) (end 72.5 88.5) (angle 90) (layer Edge.Cuts) (width 0.15))
  (gr_line (start 127.5 113.5) (end 127.5 88.5) (angle 90) (layer Edge.Cuts) (width 0.15))
  (gr_line (start 127 113.5) (end 127.5 113.5) (angle 90) (layer Edge.Cuts) (width 0.15))
  (gr_line (start 72.5 113.5) (end 127 113.5) (angle 90) (layer Edge.Cuts) (width 0.15))
  (gr_line (start 72.5 88.5) (end 72.5 113.5) (angle 90) (layer Edge.Cuts) (width 0.15))
  (dimension 25 (width 0.3) (layer Eco1.User)
    (gr_text "25,000 mm" (at 133.85 101 270) (layer Eco1.User)
      (effects (font (size 1.5 1.5) (thickness 0.3)))
    )
    (feature1 (pts (xy 128 113.5) (xy 135.2 113.5)))
    (feature2 (pts (xy 128 88.5) (xy 135.2 88.5)))
    (crossbar (pts (xy 132.5 88.5) (xy 132.5 113.5)))
    (arrow1a (pts (xy 132.5 113.5) (xy 131.913579 112.373496)))
    (arrow1b (pts (xy 132.5 113.5) (xy 133.086421 112.373496)))
    (arrow2a (pts (xy 132.5 88.5) (xy 131.913579 89.626504)))
    (arrow2b (pts (xy 132.5 88.5) (xy 133.086421 89.626504)))
  )
  (gr_line (start 72.5 113.5) (end 127.5 113.5) (angle 90) (layer Eco1.User) (width 0.2))
  (gr_line (start 72.5 113) (end 72.5 113.5) (angle 90) (layer Eco1.User) (width 0.2))
  (gr_line (start 72.5 113) (end 72.5 88.5) (angle 90) (layer Eco1.User) (width 0.2))
  (gr_line (start 72.5 88.5) (end 72.5 113) (angle 90) (layer Eco1.User) (width 0.2))
  (gr_line (start 127.5 88.5) (end 72.5 88.5) (angle 90) (layer Eco1.User) (width 0.2))
  (gr_line (start 127.5 113.5) (end 127.5 88.5) (angle 90) (layer Eco1.User) (width 0.2))
  (dimension 18.415 (width 0.3) (layer Eco1.User)
    (gr_text "18,415 mm" (at 100.0125 83.105) (layer Eco1.User)
      (effects (font (size 1.5 1.5) (thickness 0.3)))
    )
    (feature1 (pts (xy 109.22 88.265) (xy 109.22 81.755)))
    (feature2 (pts (xy 90.805 88.265) (xy 90.805 81.755)))
    (crossbar (pts (xy 90.805 84.455) (xy 109.22 84.455)))
    (arrow1a (pts (xy 109.22 84.455) (xy 108.093496 85.041421)))
    (arrow1b (pts (xy 109.22 84.455) (xy 108.093496 83.868579)))
    (arrow2a (pts (xy 90.805 84.455) (xy 91.931504 85.041421)))
    (arrow2b (pts (xy 90.805 84.455) (xy 91.931504 83.868579)))
  )

  (segment (start 90.505 96.555) (end 93.445 96.555) (width 0.5) (layer F.Cu) (net 1))
  (segment (start 103.535534 95.535534) (end 103.535534 97.464466) (width 0.5) (layer F.Cu) (net 1) (tstamp 5BAB4085))
  (segment (start 102.5 94.5) (end 103.535534 95.535534) (width 0.5) (layer F.Cu) (net 1) (tstamp 5BAB4084))
  (segment (start 95.5 94.5) (end 102.5 94.5) (width 0.5) (layer F.Cu) (net 1) (tstamp 5BAB4082))
  (segment (start 93.445 96.555) (end 95.5 94.5) (width 0.5) (layer F.Cu) (net 1) (tstamp 5BAB4080))
  (segment (start 96.464466 97.464466) (end 94.535534 97.464466) (width 0.5) (layer F.Cu) (net 2))
  (segment (start 94.175 97.825) (end 90.505 97.825) (width 0.5) (layer F.Cu) (net 2) (tstamp 5BAB4089))
  (segment (start 94.535534 97.464466) (end 94.175 97.825) (width 0.5) (layer F.Cu) (net 2) (tstamp 5BAB4088))
  (segment (start 90.505 99.095) (end 94.095 99.095) (width 0.5) (layer F.Cu) (net 3))
  (segment (start 96.464466 101.464466) (end 96.464466 104.535534) (width 0.5) (layer F.Cu) (net 3) (tstamp 5BAB4095))
  (segment (start 94.095 99.095) (end 96.464466 101.464466) (width 0.5) (layer F.Cu) (net 3) (tstamp 5BAB4094))
  (segment (start 90.505 100.365) (end 87.135 100.365) (width 0.5) (layer F.Cu) (net 4))
  (segment (start 102.5 107) (end 103.535534 105.964466) (width 0.5) (layer F.Cu) (net 4) (tstamp 5BAB4090))
  (segment (start 87 107) (end 102.5 107) (width 0.5) (layer F.Cu) (net 4) (tstamp 5BAB408F))
  (segment (start 86.5 106.5) (end 87 107) (width 0.5) (layer F.Cu) (net 4) (tstamp 5BAB408E))
  (segment (start 86.5 101) (end 86.5 106.5) (width 0.5) (layer F.Cu) (net 4) (tstamp 5BAB408D))
  (segment (start 87.135 100.365) (end 86.5 101) (width 0.5) (layer F.Cu) (net 4) (tstamp 5BAB408C))
  (segment (start 103.535534 105.964466) (end 103.535534 104.535534) (width 0.5) (layer F.Cu) (net 4) (tstamp 5BAB4091))

)
