%!PS-Adobe-3.0
%%Creator: PCBNEW
%%CreationDate: Mon Oct 01 16:40:49 2018
%%Title: D:\PEUS_Testing_GmbH\Connectors\connectors\Connector 4Pin\Female\Schematik\Gerber\RJ45_to_4Field-drl_map.ps
%%Pages: 1
%%PageOrder: Ascend
%%BoundingBox: 0 0 596 842
%%DocumentMedia: A4 595 842 0 () ()
%%Orientation: Landscape
%%EndComments
%%BeginProlog
/line { newpath moveto lineto stroke } bind def
/cir0 { newpath 0 360 arc stroke } bind def
/cir1 { newpath 0 360 arc gsave fill grestore stroke } bind def
/cir2 { newpath 0 360 arc gsave fill grestore stroke } bind def
/arc0 { newpath arc stroke } bind def
/arc1 { newpath 4 index 4 index moveto arc closepath gsave fill
    grestore stroke } bind def
/arc2 { newpath 4 index 4 index moveto arc closepath gsave fill
    grestore stroke } bind def
/poly0 { stroke } bind def
/poly1 { closepath gsave fill grestore stroke } bind def
/poly2 { closepath gsave fill grestore stroke } bind def
/rect0 { rectstroke } bind def
/rect1 { rectfill } bind def
/rect2 { rectfill } bind def
/linemode0 { 0 setlinecap 0 setlinejoin 0 setlinewidth } bind def
/linemode1 { 1 setlinecap 1 setlinejoin } bind def
/dashedline { [200] 100 setdash } bind def
/solidline { [] 0 setdash } bind def
/phantomshow { moveto
    /KicadFont findfont 0.000001 scalefont setfont
    show } bind def
/textshow { gsave
    findfont exch scalefont setfont concat 1 scale 0 0 moveto show
    } bind def
/reencodefont {
  findfont dup length dict begin
  { 1 index /FID ne
    { def }
    { pop pop } ifelse
  } forall
  /Encoding ISOLatin1Encoding def
  currentdict
  end } bind def
/KicadFont /Helvetica reencodefont definefont pop
/KicadFont-Bold /Helvetica-Bold reencodefont definefont pop
/KicadFont-Oblique /Helvetica-Oblique reencodefont definefont pop
/KicadFont-BoldOblique /Helvetica-BoldOblique reencodefont definefont pop
%%EndProlog
%%Page: 1 1
%%BeginPageSetup
gsave
0.0072 0.0072 scale
linemode1
82680 0 translate 90 rotate
150 setlinewidth
%%EndPageSetup
0 0 0 setrgbcolor
177.165 setlinewidth
newpath
47835.1 44883.9 moveto
47835.1 70868.1 lineto
stroke
0 0 0 setrgbcolor
newpath
69094.9 44883.9 moveto
47835.1 44883.9 lineto
stroke
0 0 0 setrgbcolor
newpath
69094.9 70868.1 moveto
69094.9 44883.9 lineto
stroke
0 0 0 setrgbcolor
newpath
47835.1 70868.1 moveto
69094.9 70868.1 lineto
stroke
78.7394 setlinewidth
newpath
49961.1 47482.3 moveto
50433.5 47009.9 lineto
stroke
newpath
50433.5 47482.3 moveto
49961.1 47009.9 lineto
stroke
newpath
56457.1 59883.9 moveto
56929.6 59411.4 lineto
stroke
newpath
56929.6 59883.9 moveto
56457.1 59411.4 lineto
stroke
newpath
61978.8 66976.4 moveto
62451.2 66504 lineto
stroke
newpath
62451.2 66976.4 moveto
61978.8 66504 lineto
stroke
newpath
66496.5 47482.3 moveto
66968.9 47009.9 lineto
stroke
newpath
66968.9 47482.3 moveto
66496.5 47009.9 lineto
stroke
118.11 setlinewidth
newpath
48815.1 42961.8 moveto
48815.1 44142.9 lineto
49096.3 44142.9 lineto
49265.1 44086.6 lineto
49377.5 43974.1 lineto
49433.8 43861.7 lineto
49490 43636.7 lineto
49490 43468 lineto
49433.8 43243 lineto
49377.5 43130.5 lineto
49265.1 43018 lineto
49096.3 42961.8 lineto
48815.1 42961.8 lineto
stroke
newpath
49996.2 42961.8 moveto
49996.2 43749.2 lineto
stroke
newpath
49996.2 43524.2 moveto
50052.5 43636.7 lineto
50108.7 43692.9 lineto
50221.2 43749.2 lineto
50333.7 43749.2 lineto
stroke
newpath
50727.4 42961.8 moveto
50727.4 43749.2 lineto
stroke
newpath
50727.4 44142.9 moveto
50671.1 44086.6 lineto
50727.4 44030.4 lineto
50783.6 44086.6 lineto
50727.4 44142.9 lineto
50727.4 44030.4 lineto
stroke
newpath
51458.5 42961.8 moveto
51346 43018 lineto
51289.8 43130.5 lineto
51289.8 44142.9 lineto
stroke
newpath
52077.2 42961.8 moveto
51964.7 43018 lineto
51908.5 43130.5 lineto
51908.5 44142.9 lineto
stroke
newpath
53427 42961.8 moveto
53427 44142.9 lineto
53820.7 43299.2 lineto
54214.4 44142.9 lineto
54214.4 42961.8 lineto
stroke
newpath
55283.1 42961.8 moveto
55283.1 43580.4 lineto
55226.8 43692.9 lineto
55114.3 43749.2 lineto
54889.4 43749.2 lineto
54776.9 43692.9 lineto
stroke
newpath
55283.1 43018 moveto
55170.6 42961.8 lineto
54889.4 42961.8 lineto
54776.9 43018 lineto
54720.6 43130.5 lineto
54720.6 43243 lineto
54776.9 43355.5 lineto
54889.4 43411.7 lineto
55170.6 43411.7 lineto
55283.1 43468 lineto
stroke
newpath
55845.5 43749.2 moveto
55845.5 42568.1 lineto
stroke
newpath
55845.5 43692.9 moveto
55958 43749.2 lineto
56182.9 43749.2 lineto
56295.4 43692.9 lineto
56351.7 43636.7 lineto
56407.9 43524.2 lineto
56407.9 43186.7 lineto
56351.7 43074.3 lineto
56295.4 43018 lineto
56182.9 42961.8 lineto
55958 42961.8 lineto
55845.5 43018 lineto
stroke
newpath
56914.1 43074.3 moveto
56970.3 43018 lineto
56914.1 42961.8 lineto
56857.9 43018 lineto
56914.1 43074.3 lineto
56914.1 42961.8 lineto
stroke
newpath
56914.1 43692.9 moveto
56970.3 43636.7 lineto
56914.1 43580.4 lineto
56857.9 43636.7 lineto
56914.1 43692.9 lineto
56914.1 43580.4 lineto
stroke
newpath
47274.1 41252 moveto
47746.5 40779.5 lineto
stroke
newpath
47746.5 41252 moveto
47274.1 40779.5 lineto
stroke
newpath
49040.1 41662.6 moveto
49152.6 41662.6 lineto
49265.1 41606.3 lineto
49321.3 41550.1 lineto
49377.5 41437.6 lineto
49433.8 41212.6 lineto
49433.8 40931.4 lineto
49377.5 40706.4 lineto
49321.3 40593.9 lineto
49265.1 40537.7 lineto
49152.6 40481.5 lineto
49040.1 40481.5 lineto
48927.6 40537.7 lineto
48871.4 40593.9 lineto
48815.1 40706.4 lineto
48758.9 40931.4 lineto
48758.9 41212.6 lineto
48815.1 41437.6 lineto
48871.4 41550.1 lineto
48927.6 41606.3 lineto
49040.1 41662.6 lineto
stroke
newpath
49940 40593.9 moveto
49996.2 40537.7 lineto
49940 40481.5 lineto
49883.7 40537.7 lineto
49940 40593.9 lineto
49940 40481.5 lineto
stroke
newpath
51008.6 41268.9 moveto
51008.6 40481.5 lineto
stroke
newpath
50727.4 41718.8 moveto
50446.2 40875.2 lineto
51177.3 40875.2 lineto
stroke
newpath
51852.2 41662.6 moveto
51964.7 41662.6 lineto
52077.2 41606.3 lineto
52133.4 41550.1 lineto
52189.7 41437.6 lineto
52245.9 41212.6 lineto
52245.9 40931.4 lineto
52189.7 40706.4 lineto
52133.4 40593.9 lineto
52077.2 40537.7 lineto
51964.7 40481.5 lineto
51852.2 40481.5 lineto
51739.7 40537.7 lineto
51683.5 40593.9 lineto
51627.3 40706.4 lineto
51571 40931.4 lineto
51571 41212.6 lineto
51627.3 41437.6 lineto
51683.5 41550.1 lineto
51739.7 41606.3 lineto
51852.2 41662.6 lineto
stroke
newpath
52752.1 40481.5 moveto
52752.1 41268.9 lineto
stroke
newpath
52752.1 41156.4 moveto
52808.4 41212.6 lineto
52920.8 41268.9 lineto
53089.6 41268.9 lineto
53202.1 41212.6 lineto
53258.3 41100.1 lineto
53258.3 40481.5 lineto
stroke
newpath
53258.3 41100.1 moveto
53314.5 41212.6 lineto
53427 41268.9 lineto
53595.8 41268.9 lineto
53708.2 41212.6 lineto
53764.5 41100.1 lineto
53764.5 40481.5 lineto
stroke
newpath
54326.9 40481.5 moveto
54326.9 41268.9 lineto
stroke
newpath
54326.9 41156.4 moveto
54383.2 41212.6 lineto
54495.7 41268.9 lineto
54664.4 41268.9 lineto
54776.9 41212.6 lineto
54833.1 41100.1 lineto
54833.1 40481.5 lineto
stroke
newpath
54833.1 41100.1 moveto
54889.4 41212.6 lineto
55001.8 41268.9 lineto
55170.6 41268.9 lineto
55283.1 41212.6 lineto
55339.3 41100.1 lineto
55339.3 40481.5 lineto
stroke
newpath
57645.3 41718.8 moveto
56632.9 40200.2 lineto
stroke
newpath
59163.8 41662.6 moveto
59276.3 41662.6 lineto
59388.8 41606.3 lineto
59445 41550.1 lineto
59501.3 41437.6 lineto
59557.5 41212.6 lineto
59557.5 40931.4 lineto
59501.3 40706.4 lineto
59445 40593.9 lineto
59388.8 40537.7 lineto
59276.3 40481.5 lineto
59163.8 40481.5 lineto
59051.3 40537.7 lineto
58995.1 40593.9 lineto
58938.8 40706.4 lineto
58882.6 40931.4 lineto
58882.6 41212.6 lineto
58938.8 41437.6 lineto
58995.1 41550.1 lineto
59051.3 41606.3 lineto
59163.8 41662.6 lineto
stroke
newpath
60063.7 40593.9 moveto
60119.9 40537.7 lineto
60063.7 40481.5 lineto
60007.5 40537.7 lineto
60063.7 40593.9 lineto
60063.7 40481.5 lineto
stroke
newpath
60851.1 41662.6 moveto
60963.6 41662.6 lineto
61076.1 41606.3 lineto
61132.3 41550.1 lineto
61188.6 41437.6 lineto
61244.8 41212.6 lineto
61244.8 40931.4 lineto
61188.6 40706.4 lineto
61132.3 40593.9 lineto
61076.1 40537.7 lineto
60963.6 40481.5 lineto
60851.1 40481.5 lineto
60738.6 40537.7 lineto
60682.4 40593.9 lineto
60626.1 40706.4 lineto
60569.9 40931.4 lineto
60569.9 41212.6 lineto
60626.1 41437.6 lineto
60682.4 41550.1 lineto
60738.6 41606.3 lineto
60851.1 41662.6 lineto
stroke
newpath
62369.7 40481.5 moveto
61694.8 40481.5 lineto
stroke
newpath
62032.2 40481.5 moveto
62032.2 41662.6 lineto
61919.7 41493.8 lineto
61807.2 41381.3 lineto
61694.8 41325.1 lineto
stroke
newpath
63382 41662.6 moveto
63157.1 41662.6 lineto
63044.6 41606.3 lineto
62988.3 41550.1 lineto
62875.9 41381.3 lineto
62819.6 41156.4 lineto
62819.6 40706.4 lineto
62875.9 40593.9 lineto
62932.1 40537.7 lineto
63044.6 40481.5 lineto
63269.6 40481.5 lineto
63382 40537.7 lineto
63438.3 40593.9 lineto
63494.5 40706.4 lineto
63494.5 40987.6 lineto
63438.3 41100.1 lineto
63382 41156.4 lineto
63269.6 41212.6 lineto
63044.6 41212.6 lineto
62932.1 41156.4 lineto
62875.9 41100.1 lineto
62819.6 40987.6 lineto
stroke
newpath
63944.5 41662.6 moveto
63944.5 41437.6 lineto
stroke
newpath
64394.4 41662.6 moveto
64394.4 41437.6 lineto
stroke
newpath
66137.9 40031.5 moveto
66081.7 40087.8 lineto
65969.2 40256.5 lineto
65913 40369 lineto
65856.7 40537.7 lineto
65800.5 40818.9 lineto
65800.5 41043.9 lineto
65856.7 41325.1 lineto
65913 41493.8 lineto
65969.2 41606.3 lineto
66081.7 41775 lineto
66137.9 41831.3 lineto
stroke
newpath
67094.1 41268.9 moveto
67094.1 40481.5 lineto
stroke
newpath
66812.9 41718.8 moveto
66531.6 40875.2 lineto
67262.8 40875.2 lineto
stroke
newpath
68612.6 40481.5 moveto
68612.6 41662.6 lineto
stroke
newpath
69118.8 40481.5 moveto
69118.8 41100.1 lineto
69062.6 41212.6 lineto
68950.1 41268.9 lineto
68781.4 41268.9 lineto
68668.9 41212.6 lineto
68612.6 41156.4 lineto
stroke
newpath
69850 40481.5 moveto
69737.5 40537.7 lineto
69681.3 40593.9 lineto
69625 40706.4 lineto
69625 41043.9 lineto
69681.3 41156.4 lineto
69737.5 41212.6 lineto
69850 41268.9 lineto
70018.7 41268.9 lineto
70131.2 41212.6 lineto
70187.4 41156.4 lineto
70243.7 41043.9 lineto
70243.7 40706.4 lineto
70187.4 40593.9 lineto
70131.2 40537.7 lineto
70018.7 40481.5 lineto
69850 40481.5 lineto
stroke
newpath
70918.6 40481.5 moveto
70806.1 40537.7 lineto
70749.9 40650.2 lineto
70749.9 41662.6 lineto
stroke
newpath
71818.5 40537.7 moveto
71706 40481.5 lineto
71481 40481.5 lineto
71368.5 40537.7 lineto
71312.3 40650.2 lineto
71312.3 41100.1 lineto
71368.5 41212.6 lineto
71481 41268.9 lineto
71706 41268.9 lineto
71818.5 41212.6 lineto
71874.7 41100.1 lineto
71874.7 40987.6 lineto
71312.3 40875.2 lineto
stroke
newpath
72324.7 40537.7 moveto
72437.2 40481.5 lineto
72662.1 40481.5 lineto
72774.6 40537.7 lineto
72830.9 40650.2 lineto
72830.9 40706.4 lineto
72774.6 40818.9 lineto
72662.1 40875.2 lineto
72493.4 40875.2 lineto
72380.9 40931.4 lineto
72324.7 41043.9 lineto
72324.7 41100.1 lineto
72380.9 41212.6 lineto
72493.4 41268.9 lineto
72662.1 41268.9 lineto
72774.6 41212.6 lineto
stroke
newpath
73224.6 40031.5 moveto
73280.8 40087.8 lineto
73393.3 40256.5 lineto
73449.5 40369 lineto
73505.8 40537.7 lineto
73562 40818.9 lineto
73562 41043.9 lineto
73505.8 41325.1 lineto
73449.5 41493.8 lineto
73393.3 41606.3 lineto
73280.8 41775 lineto
73224.6 41831.3 lineto
stroke
showpage
grestore
%%EOF
