G04 #@! TF.FileFunction,Copper,L2,Bot,Signal*
%FSLAX46Y46*%
G04 Gerber Fmt 4.6, Leading zero omitted, Abs format (unit mm)*
G04 Created by KiCad (PCBNEW 4.0.7) date 10/01/18 16:40:59*
%MOMM*%
%LPD*%
G01*
G04 APERTURE LIST*
%ADD10C,0.100000*%
%ADD11R,0.760000X5.500000*%
%ADD12R,8.800000X4.500000*%
%ADD13C,0.600000*%
%ADD14C,0.500000*%
G04 APERTURE END LIST*
D10*
D11*
X144055000Y-97495000D03*
X145325000Y-97495000D03*
X146595000Y-97495000D03*
X147865000Y-97495000D03*
X149135000Y-97495000D03*
X150405000Y-97495000D03*
X151675000Y-97495000D03*
X152945000Y-97495000D03*
D12*
X148500000Y-112985000D03*
D13*
X141500000Y-114000000D03*
X147000000Y-103500000D03*
X151675000Y-97495000D03*
X155500000Y-114000000D03*
D14*
X149135000Y-97495000D02*
X149135000Y-101365000D01*
X141500000Y-105000000D02*
X141500000Y-114000000D01*
X144500000Y-102000000D02*
X141500000Y-105000000D01*
X148500000Y-102000000D02*
X144500000Y-102000000D01*
X149135000Y-101365000D02*
X148500000Y-102000000D01*
X150405000Y-97495000D02*
X150405000Y-104595000D01*
X147000000Y-104500000D02*
X147000000Y-103500000D01*
X147500000Y-105000000D02*
X147000000Y-104500000D01*
X150000000Y-105000000D02*
X147500000Y-105000000D01*
X150405000Y-104595000D02*
X150000000Y-105000000D01*
X152945000Y-97495000D02*
X152945000Y-106445000D01*
X155500000Y-109000000D02*
X155500000Y-114000000D01*
X152945000Y-106445000D02*
X155500000Y-109000000D01*
M02*
